{
  "dependencies": {
    "Microsoft.NETCore.App": {
      "version": "1.1.0",
      "type": "platform"
    },
    "Microsoft.AspNetCore.Diagnostics": "1.1.0",
    "Microsoft.AspNetCore.Server.IISIntegration": "1.1.0",
    "Microsoft.AspNetCore.Server.Kestrel": "1.0.1",
    "Microsoft.Extensions.Logging.Console": "1.1.0",
    "Autofac.Extensions.DependencyInjection": "4.0.0",
    "Autofac": "4.3.0",
    "Smog.Infrastructure": "1.0.0-*",
    "Serilog": "2.3.0",
    "Serilog.Extensions.Logging": "1.3.1",
    "Microsoft.AspNetCore.Mvc": "1.1.1",
    "Microsoft.Extensions.Configuration.FileExtensions": "1.0.0",
    "Microsoft.Extensions.Configuration.Json": "1.0.0",
    "Serilog.Sinks.Seq": "3.2.0",
    "GeoCoordinate": "1.1.0",
    "Humanizer.Core": "2.1.0"},

  "tools": {
    "Microsoft.AspNetCore.Server.IISIntegration.Tools": "1.0.0-preview2-final"
  },

  "frameworks": {
    "netcoreapp1.1": {
      "imports": [
        "dotnet5.6",
        "portable-net45+win8"
      ]
    }
  },

  "buildOptions": {
    "emitEntryPoint": true,
    "preserveCompilationContext": true
  },

  "runtimeOptions": {
    "configProperties": {
      "System.GC.Server": true
    }
  },

  "publishOptions": {
    "include": [
      "wwwroot",
      "web.config"
    ]
  },

  "scripts": {
    "postpublish": [ "dotnet publish-iis --publish-folder %publish:OutputPath% --framework %publish:FullTargetFramework%" ]
  },
  "userSecretsId": "aspnet-Smog.WebApp-20161105120249"
}
